<?xml version="1.0" encoding="utf-8"?>
<!-- Generator: Adobe Illustrator 23.0.4, SVG Export Plug-In . SVG Version: 6.00 Build 0)  -->
<svg version="1.1" id="Capa_1" xmlns="http://www.w3.org/2000/svg" xmlns:xlink="http://www.w3.org/1999/xlink" x="0px" y="0px"
	 viewBox="0 0 200 200" style="enable-background:new 0 0 200 200;" xml:space="preserve">
<style type="text/css">
	.st0{fill:#DEAD6E;}
</style>
<g>
	<g>
		<path class="st0" d="M90.5,185.3c-0.3,0-0.6,0-0.8-0.1l-59.2-17.3c-1.5-0.5-2.5-2-2.1-3.6l13.4-54.2c0.4-1.6,2-2.6,3.6-2.2
			c1.6,0.4,2.6,2,2.2,3.6l-12.7,51.4l56.4,16.5c1.6,0.5,2.5,2.1,2,3.7C93,184.5,91.8,185.3,90.5,185.3z"/>
	</g>
	<g>
		<path class="st0" d="M123.1,25.3l-3.2-2.1c-0.2-0.1-0.3-0.4-0.1-0.6l4-6.8c0.6-1.1,2-1.4,3.1-0.8l27.5,14.8c1.1,0.6,1.5,2,1,3.1
			l-3.6,7c-0.1,0.2-0.4,0.3-0.6,0.2l-3.3-1.5c-0.8-0.3-1.7,0-2.1,0.7l-6.3,11.8c-0.1,0.1-0.1,0.2,0,0.3l1.6,7c0,0.1,0,0.2,0,0.3
			l-2.8,6.2c-0.1,0.2-0.4,0.3-0.6,0.2l-12.2-6.9c-0.2-0.1-0.5,0-0.6,0.2l-10.1,19c-0.2,0.4-0.8,0.3-0.8-0.2l-1-8.6
			c0-0.1,0-0.2,0.1-0.3l6.5-11.6c0.1-0.2,0-0.5-0.2-0.6l-12.7-6.4c-0.2-0.1-0.3-0.4-0.2-0.6l4.2-6.8c0.1-0.1,0.1-0.2,0.2-0.2
			l6.5-2.2c0.1,0,0.2-0.1,0.3-0.2l6.2-12.4C124,26.7,123.8,25.8,123.1,25.3z"/>
	</g>
	<g>
		<path class="st0" d="M93.5,183.6c-1.1,0-2.2-0.6-2.7-1.7L41,75.3c-0.7-1.5-0.1-3.3,1.4-4l56.4-26.7c1.5-0.7,3.3-0.1,4,1.4
			c0.7,1.5,0.1,3.3-1.4,4L47.7,75.5L95,176.8l56.3-23.1l14.1-36l-23.3-49.4c-0.7-1.5-0.1-3.3,1.4-4c1.5-0.7,3.3-0.1,4,1.4l23.8,50.6
			c0.4,0.7,0.4,1.6,0.1,2.4l-15,38.4c-0.3,0.8-0.9,1.4-1.7,1.7l-60.2,24.7C94.2,183.6,93.9,183.6,93.5,183.6z"/>
	</g>
	<g>
		<path class="st0" d="M167.1,118.3l-26.2,12.3c-0.4,0.2-0.5,0.6-0.3,1l12.3,23.1c0.3,0.5,1,0.5,1.3-0.1l13.9-35.4
			C168.3,118.6,167.7,118,167.1,118.3z"/>
	</g>
	<g>
		<path class="st0" d="M104.6,83L74.5,97c-0.6,0.3-1.3,0-1.5-0.6l-3-6.4c-0.3-0.6,0-1.3,0.6-1.5l30.1-14c0.6-0.3,1.3,0,1.5,0.6
			l3,6.4C105.4,82,105.1,82.7,104.6,83z"/>
	</g>
	<g>
		<path class="st0" d="M136,94.1l-52,24.2c-0.6,0.3-1.3,0-1.5-0.6l-3-6.4c-0.3-0.6,0-1.3,0.6-1.5l52-24.2c0.6-0.3,1.3,0,1.5,0.6
			l3,6.4C136.8,93.1,136.5,93.8,136,94.1z"/>
	</g>
	<g>
		<path class="st0" d="M143.6,117.6l-48.3,22.5c-0.6,0.3-1.3,0-1.5-0.6l-3-6.4c-0.3-0.6,0-1.3,0.6-1.5l48.3-22.5
			c0.6-0.3,1.3,0,1.5,0.6l3,6.4C144.4,116.7,144.2,117.4,143.6,117.6z"/>
	</g>
</g>
</svg>
