<?xml version="1.0" encoding="utf-8"?>
<!-- Generator: Adobe Illustrator 23.0.4, SVG Export Plug-In . SVG Version: 6.00 Build 0)  -->
<svg version="1.1" id="Capa_1" xmlns="http://www.w3.org/2000/svg" xmlns:xlink="http://www.w3.org/1999/xlink" x="0px" y="0px"
	 viewBox="0 0 106 106" style="enable-background:new 0 0 106 106;" xml:space="preserve">
<style type="text/css">
	.st0{fill:#AF8C55;}
	.st1{fill-rule:evenodd;clip-rule:evenodd;fill:#15212F;}
</style>
<circle class="st0" cx="53" cy="53" r="53"/>
<title>LS_C_Retencion</title>
<g id="e8adc06a-239a-408a-a6f8-8fd27ae2eb5c">
	<path class="st1" d="M77.62,50.94V34.05c0-1.41-0.59-2.79-1.6-3.76l-6.58-6.25c-0.97-0.93-2.23-1.41-3.57-1.41H37.8
		c-2.86,0-5.21,2.34-5.21,5.21v32.65c-2.6,0.78-4.31,2.31-4.31,4.16v14.02c0,2.68,3.53,4.69,8.18,4.69c2.6,0,4.87-0.63,6.36-1.64
		h29.6c2.86,0,5.21-2.34,5.21-5.21v-9.48C77.85,66.78,77.62,50.94,77.62,50.94z M67.21,26.73c6.95,6.58,6.47,6.1,6.62,6.25h-6.58
		L67.21,26.73z M42.33,79.09c0,1-2.38,2.45-6.14,2.45s-6.14-1.45-6.14-2.45v-2.12c1.52,0.89,3.68,1.41,6.14,1.41
		c2.45,0,4.61-0.52,6.14-1.41V79.09z M42.33,74.18c0,1-2.38,2.45-6.14,2.45s-6.14-1.45-6.14-2.45v-2.12
		c1.52,0.89,3.68,1.41,6.14,1.41c2.45,0,4.61-0.52,6.14-1.41V74.18z M42.33,69.27c0,1-2.38,2.45-6.14,2.45s-6.14-1.45-6.14-2.45
		v-2.12c1.52,0.89,3.68,1.41,6.14,1.41c2.45,0,4.61-0.52,6.14-1.41V69.27z M36.16,66.81c-3.76,0-6.14-1.45-6.14-2.45
		s2.38-2.45,6.14-2.45c3.76,0,6.14,1.45,6.14,2.45S39.92,66.81,36.16,66.81z M74.72,77.08c0,0.97-0.78,1.78-1.78,1.78H44.38V68.08
		H58.7c0.97,0.04,1.82-0.71,1.86-1.71s-0.71-1.82-1.71-1.86c-0.04,0-0.11,0-0.15,0H44.34c-0.3-2.57-3.83-4.46-8.4-4.46h-0.41V26.99
		c0-0.97,0.78-1.78,1.78-1.78h26.74v8.89c0,0.97,0.78,1.78,1.78,1.78h8.92L74.72,77.08z"/>
	<path class="st1" d="M41.26,36.47h17.33c0.97,0.04,1.78-0.71,1.82-1.64c0.04-0.93-0.71-1.78-1.64-1.82c-0.04,0-0.11,0-0.15,0H41.26
		c-0.97,0.04-1.71,0.86-1.64,1.82C39.66,35.69,40.36,36.4,41.26,36.47z"/>
	<path class="st1" d="M41.26,46.96h27.7c0.97,0,1.71-0.78,1.71-1.75c0-0.97-0.78-1.75-1.71-1.75h-27.7c-0.97,0-1.75,0.78-1.75,1.75
		C39.51,46.18,40.29,46.96,41.26,46.96z"/>
	<path class="st1" d="M70.71,55.62c0-0.97-0.78-1.75-1.75-1.75h-27.7c-0.97,0-1.75,0.78-1.75,1.75c0,0.97,0.78,1.75,1.75,1.75h27.7
		C69.93,57.33,70.71,56.59,70.71,55.62L70.71,55.62z"/>
</g>
</svg>
