<?xml version="1.0" encoding="utf-8"?>
<!-- Generator: Adobe Illustrator 23.0.4, SVG Export Plug-In . SVG Version: 6.00 Build 0)  -->
<svg version="1.1" id="Capa_1" xmlns="http://www.w3.org/2000/svg" xmlns:xlink="http://www.w3.org/1999/xlink" x="0px" y="0px"
	 viewBox="0 0 106 106" style="enable-background:new 0 0 106 106;" xml:space="preserve">
<style type="text/css">
	.st0{fill:#15212F;}
	.st1{fill:#AF8C55;}
</style>
<circle class="st0" cx="53" cy="53" r="53"/>
<path class="st1" d="M89.24,44.85c0.73-0.26,1.2-0.9,1.2-1.59c0-0.73-0.52-1.37-1.25-1.63L52.94,31.02c-0.3-0.13-0.69-0.13-0.99,0
	L16.26,41.15c-0.73,0.26-1.2,0.9-1.2,1.59c0,0.73,0.47,1.42,1.16,1.63l13.79,4.6l-0.13,14.35c0,1.85,0.73,3.61,2.02,4.94
	c2.75,2.75,8.5,6.19,20.06,6.7C52.69,75,53.37,75,54.06,75c11.64,0,17.22-4.55,19.5-7.26c1.07-1.29,1.63-2.88,1.63-4.51l0.09-14.05
	L82.37,47v7.56l-3.52,10.48c-0.21,0.69,0.04,1.5,0.64,1.93l0.09,0.04c0.69,0.39,2.1,1.07,4.21,1.07c1.46,0,3.01-0.3,4.51-0.94
	c0.86-0.39,1.29-1.33,0.94-2.19L85.8,54.9v-9.02L89.24,44.85z M82.84,43.3l-30.62,9.49L22.5,42.91l29.89-8.5L82.84,43.3z
	 M33.36,50.13l18.34,6.1c0.21,0.09,0.39,0.09,0.52,0.09s0.34,0,0.52-0.04l19.16-5.93l-0.1,12.92l0,0c0,0.86-0.3,1.68-0.86,2.36
	c-2.06,2.45-7.3,6.49-18.86,5.97C41,71.09,36.15,67.83,34.26,65.94c-0.69-0.73-1.03-1.59-1.03-2.53L33.36,50.13z M85.5,64.43
	c-1.33,0.34-2.32,0.26-2.92,0.13l1.46-4.34L85.5,64.43z"/>
</svg>
