<?xml version="1.0" encoding="utf-8"?>
<!-- Generator: Adobe Illustrator 23.0.4, SVG Export Plug-In . SVG Version: 6.00 Build 0)  -->
<svg version="1.1" id="Capa_1" xmlns="http://www.w3.org/2000/svg" xmlns:xlink="http://www.w3.org/1999/xlink" x="0px" y="0px"
	 viewBox="0 0 106 106" style="enable-background:new 0 0 106 106;" xml:space="preserve">
<style type="text/css">
	.st0{fill:#15212F;}
	.st1{fill:#AF8C55;}
</style>
<title>Vacaciones</title>
<circle class="st0" cx="53" cy="53" r="53"/>
<g id="f29b7411-3800-4766-aa17-30dde5ed6897">
	<path class="st1" d="M12.76,55.06l3.58-6.43c0.69-1.29,1.1-1.42,2.48-1.06c4.59,1.15,9.18,2.34,13.73,3.49
		c0.37,0.09,0.69,0.09,1.06-0.05c2.71-1.24,5.42-2.53,8.08-3.81c0.09-0.05,0.18-0.14,0.32-0.23l-7.67-5.28l-7.16-4.96
		c-1.29-0.87-1.52-1.56-1.06-3.08c0.96-3.26,3.44-4.68,6.98-3.67c2.71,0.83,5.37,1.93,8.04,2.94c5.42,2.07,10.79,4.22,16.21,6.34
		c0.41,0.14,0.87,0.14,1.29-0.05c6.75-3.12,13.45-6.29,20.16-9.46c2.57-1.19,5.19-1.88,8.04-1.52c5.51,0.69,8.08,5.74,5.28,10.51
		c-1.24,2.16-3.12,3.86-5.37,4.91c-6.06,2.89-12.12,5.74-18.18,8.54c-0.64,0.28-1.1,0.78-1.29,1.42
		c-2.94,8.86-5.92,17.72-8.95,26.58c-0.55,1.61-1.24,3.12-2.48,4.32c-2.2,2.07-5.14,1.42-6.89-0.09c-0.32-0.37-0.51-0.83-0.46-1.33
		c0.14-1.97,0.32-3.9,0.51-5.88c0.37-3.58,0.69-7.21,1.06-10.79c0.18-1.88,0.37-3.76,0.55-5.79c-0.41,0.18-0.69,0.28-0.92,0.41
		L27.31,71.5c-1.56,0.73-2.07,0.51-2.8-1.06c-0.92-1.93-1.79-3.86-2.66-5.74c-0.55-1.19-0.32-1.84,0.87-2.39
		c0.6-0.28,1.19-0.55,1.74-0.87c0,0,0-0.05,0.05-0.14l-1.93-0.83c-2.71-1.15-5.46-2.25-8.17-3.4c-0.6-0.32-1.15-0.69-1.65-1.1V55.06
		z M68.91,48.96c5.56-2.62,10.97-5.14,16.35-7.71c2.02-0.92,3.63-2.43,4.64-4.41c1.24-2.53,0.09-5-2.66-5.6
		c-2.48-0.55-4.78,0-7.07,1.06c-15.01,7.07-30.03,14.1-45.04,21.12c-1.06,0.55-2.3,0.64-3.44,0.32c-4.18-1.1-8.36-2.11-12.53-3.12
		c-0.23-0.05-0.51,0-0.69,0.18c-0.78,1.29-1.52,2.62-2.25,3.99c0.32,0.14,0.55,0.23,0.78,0.32c3.81,1.56,7.58,3.12,11.39,4.73
		c0.64,0.28,1.24,0.64,1.24,1.47s-0.51,1.19-1.19,1.47c-1.19,0.55-2.34,1.1-3.58,1.7l1.97,4.18c0.37-0.14,0.64-0.28,0.92-0.41
		c7.39-3.44,14.83-6.93,22.22-10.33c0.69-0.23,1.1-0.87,1.06-1.56c0-1.1,0.18-2.2,0.32-3.26c0.05-0.78,0.69-1.42,1.52-1.38
		c0.78,0.05,1.38,0.73,1.33,1.52v0.05c0,0.46-0.05,0.87-0.09,1.33c-0.18,1.93-0.37,3.86-0.55,5.79c-0.32,3.58-0.69,7.12-1.01,10.7
		c-0.37,3.58-0.69,7.21-1.01,10.79c-0.09,1.01,0.32,1.38,1.33,1.24c0.41-0.05,0.78-0.23,1.06-0.55c0.55-0.6,1.01-1.29,1.29-2.02
		c1.1-3.08,2.16-6.15,3.21-9.27c2.85-8.49,5.69-16.94,8.54-25.39c0.09-0.23,0.18-0.51,0.28-0.73c0.28-0.64,1.01-0.96,1.7-0.78
		c0.73,0.18,1.15,0.92,0.96,1.65C69.6,46.89,69.23,47.85,68.91,48.96z M54.36,41.24c-0.32-0.14-0.51-0.28-0.69-0.32
		c-6.52-2.53-13.04-5.05-19.56-7.58c-0.87-0.32-1.74-0.55-2.66-0.69c-1.06-0.28-2.11,0.28-2.53,1.29c-0.18,0.28-0.09,0.64,0.23,0.83
		h0.05c5.14,3.49,10.28,7.02,15.43,10.51c0.23,0.14,0.55,0.18,0.83,0.09C48.39,44.04,51.28,42.67,54.36,41.24z"/>
</g>
</svg>
