<?xml version="1.0" encoding="utf-8"?>
<!-- Generator: Adobe Illustrator 23.0.4, SVG Export Plug-In . SVG Version: 6.00 Build 0)  -->
<svg version="1.1" id="Capa_1" xmlns="http://www.w3.org/2000/svg" xmlns:xlink="http://www.w3.org/1999/xlink" x="0px" y="0px"
	 viewBox="0 0 20 20" style="enable-background:new 0 0 20 20;" xml:space="preserve">
<style type="text/css">
	.st0{fill-rule:evenodd;clip-rule:evenodd;fill:#CFA86E;}
</style>
<title>LS_C_Retencion (1)</title>
<g>
	<path class="st0" d="M18.8,7.3c-0.6-0.5-1.6-0.5-2.2,0.2l-1.5,1.7v-5c0-0.4-0.2-0.8-0.5-1.1l-1.9-1.8c-0.3-0.3-0.7-0.4-1.1-0.4H3.4
		c-0.8,0-1.5,0.7-1.5,1.5V12c-0.8,0.2-1.3,0.7-1.3,1.2v4.1c0,0.8,1,1.4,2.4,1.4c0.8,0,1.4-0.2,1.9-0.5h8.8c0.8,0,1.5-0.7,1.5-1.5
		v-2.8c0.1-0.1,3.8-4.5,3.8-4.5C19.6,8.8,19.5,7.8,18.8,7.3C18.8,7.3,18.8,7.3,18.8,7.3z M12.1,2c2,1.9,1.9,1.8,1.9,1.9h-1.9V2z
		 M4.8,17.4c0,0.3-0.7,0.7-1.7,0.7s-1.7-0.4-1.7-0.7V17c0.4,0.2,1,0.4,1.7,0.4s1.3-0.1,1.7-0.4V17.4z M4.8,16c0,0.3-0.7,0.7-1.7,0.7
		S1.3,16.3,1.3,16v-0.4C1.8,15.8,2.4,16,3,16s1.3-0.1,1.7-0.4V16z M4.8,14.6c0,0.3-0.7,0.7-1.7,0.7s-1.7-0.4-1.7-0.7v-0.4
		c0.4,0.2,1,0.4,1.7,0.4s1.3-0.1,1.7-0.4V14.6z M3,13.9c-1.1,0-1.7-0.4-1.7-0.7S2,12.5,3,12.5s1.7,0.4,1.7,0.7S4.1,13.9,3,13.9z
		 M14.2,16.7c0,0.3-0.2,0.5-0.5,0.5H5.5v-3.1h4.1c0.3,0,0.5-0.2,0.5-0.5c0-0.3-0.2-0.5-0.5-0.5c0,0,0,0,0,0H5.5
		c-0.1-0.7-1.1-1.3-2.4-1.3c0,0-0.1,0-0.1,0V2.4c0-0.3,0.2-0.5,0.5-0.5h7.7v2.6c0,0.3,0.2,0.5,0.5,0.5l0,0h2.6v5.5
		c-0.2,0.3-2,2.3-2.2,2.6c-0.2,0.2-0.3,0.4-0.3,0.6l-0.5,2c-0.1,0.3,0.1,0.6,0.4,0.6c0.1,0,0.2,0,0.3,0l1.9-0.8
		c0.1-0.1,0.3-0.1,0.4-0.2V16.7z M13,13.4l0.8,0.7l-0.2,0.2c-0.1,0.1-0.1,0.1-0.2,0.1l-0.9,0.4l0.2-1c0-0.1,0.1-0.1,0.1-0.2L13,13.4
		z M14.4,13.3l-0.8-0.7c0.1-0.1,2.7-3.1,2.8-3.3l0.8,0.7L14.4,13.3z M18.2,8.8l-0.3,0.4l-0.8-0.7l0.3-0.4c0.2-0.2,0.5-0.2,0.7-0.1
		C18.4,8.2,18.4,8.6,18.2,8.8L18.2,8.8L18.2,8.8z"/>
	<path class="st0" d="M4.5,4.9h5.1c0.3,0,0.5-0.2,0.5-0.5c0-0.3-0.2-0.5-0.5-0.5c0,0,0,0,0,0H4.5c-0.3,0-0.5,0.2-0.5,0.5
		C3.9,4.7,4.2,4.9,4.5,4.9C4.4,4.9,4.5,4.9,4.5,4.9z"/>
	<path class="st0" d="M4.5,8h8.2c0.3,0,0.5-0.2,0.5-0.5C13.2,7.2,13,7,12.7,7c0,0,0,0,0,0H4.5C4.2,7,3.9,7.2,3.9,7.5
		C3.9,7.8,4.2,8,4.5,8C4.4,8,4.5,8,4.5,8z"/>
	<path class="st0" d="M13.2,10.6c0-0.3-0.2-0.5-0.5-0.5H4.5c-0.3,0-0.5,0.2-0.5,0.5c0,0.3,0.2,0.5,0.5,0.5c0,0,0,0,0,0h8.2
		C12.9,11.1,13.2,10.9,13.2,10.6z"/>
</g>
</svg>
