<?xml version="1.0" encoding="utf-8"?>
<!-- Generator: Adobe Illustrator 23.0.4, SVG Export Plug-In . SVG Version: 6.00 Build 0)  -->
<svg version="1.1" id="Capa_1" xmlns="http://www.w3.org/2000/svg" xmlns:xlink="http://www.w3.org/1999/xlink" x="0px" y="0px"
	 viewBox="0 0 20 20" style="enable-background:new 0 0 20 20;" xml:space="preserve">
<style type="text/css">
	.st0{fill-rule:evenodd;clip-rule:evenodd;fill:#CFA86E;stroke:#CFA86E;stroke-width:0.3816;stroke-miterlimit:10;}
</style>
<title>LS_Descuento</title>
<g>
	<path class="st0" d="M19.7,9.8l-1.8-2.2l0.1-2.8c0-0.3-0.2-0.5-0.4-0.6L15,3.5l-1.5-2.3C13.3,1,13.1,0.9,13,0.9c-0.1,0-0.1,0-0.2,0
		l-2.6,1L7.5,1c-0.1,0-0.1,0-0.2,0C7.1,0.9,7,1,6.9,1.2L5.3,3.5L2.6,4.2C2.4,4.3,2.2,4.6,2.2,4.8l0.1,2.8L0.6,9.8
		c-0.2,0.2-0.2,0.5,0,0.7l1.8,2.2l-0.1,2.8c0,0.3,0.2,0.5,0.4,0.6l2.7,0.7l1.5,2.3c0.1,0.2,0.4,0.3,0.7,0.2l2.6-1l2.6,1
		c0.1,0,0.1,0,0.2,0c0.2,0,0.4-0.1,0.5-0.3l1.5-2.3l2.7-0.7c0.3-0.1,0.4-0.3,0.4-0.6l-0.1-2.8l1.8-2.2C19.9,10.3,19.9,10,19.7,9.8
		L19.7,9.8z M16.9,12.1c-0.1,0.1-0.1,0.2-0.1,0.4l0.1,2.5l-2.5,0.7c-0.1,0-0.3,0.1-0.3,0.2l-1.4,2.1l-2.4-0.9c-0.1,0-0.3,0-0.4,0
		l-2.4,0.9L6.2,16c-0.1-0.1-0.2-0.2-0.3-0.2l-2.5-0.7l0.1-2.5c0-0.1,0-0.3-0.1-0.4l-1.6-2l1.6-2C3.5,8,3.5,7.9,3.5,7.8L3.4,5.2
		l2.5-0.7c0.1,0,0.3-0.1,0.3-0.2l1.4-2.1l2.4,0.9c0.1,0,0.3,0,0.4,0l2.4-0.9l1.4,2.1c0.1,0.1,0.2,0.2,0.3,0.2l2.5,0.7l-0.1,2.5
		c0,0.1,0,0.3,0.1,0.4l1.6,2L16.9,12.1z"/>
	<path class="st0" d="M10.7,9.6H9.6C8.9,9.6,8.4,9,8.4,8.4c0-0.7,0.5-1.2,1.2-1.2h2.4c0.3,0,0.6-0.3,0.6-0.6c0-0.3-0.3-0.6-0.6-0.6
		c0,0,0,0,0,0h-1.2V4.8c0-0.3-0.3-0.6-0.6-0.6c-0.3,0-0.5,0.3-0.6,0.6V6h0c-1.3,0-2.3,1-2.4,2.3c0,1.3,1,2.3,2.3,2.4c0,0,0,0,0.1,0
		h1.2c0.7,0,1.2,0.6,1.2,1.2c0,0.6-0.5,1.2-1.2,1.2H8.4c-0.3,0-0.6,0.3-0.6,0.6c0,0.3,0.3,0.5,0.6,0.6h1.2v1.2
		c0,0.3,0.3,0.6,0.6,0.6c0.3,0,0.5-0.3,0.6-0.6v-1.2h0c1.3,0,2.3-1.1,2.3-2.4C13,10.6,12,9.6,10.7,9.6L10.7,9.6z"/>
</g>
</svg>
